<?xml version="1.0" encoding="UTF-8"?>
<svg width="886px" height="270px" viewBox="0 0 886 270" version="1.1" xmlns="http://www.w3.org/2000/svg" xmlns:xlink="http://www.w3.org/1999/xlink">
    <g id="icons" stroke="none" stroke-width="1" fill="none" fill-rule="evenodd">
        <g id="icn2-copy" transform="translate(313.000000, 3.000000)" stroke="#FFDB8C" stroke-width="4">
            <path d="M159,254.814815 C159,257.129222 157.125474,259 154.815789,259 L4.18421053,259 C1.87452632,259 0,257.129222 0,254.814815 L0,37.1851852 C0,34.8707778 1.87452632,33 4.18421053,33 L154.815789,33 C157.125474,33 159,34.8707778 159,37.1851852 L159,254.814815 Z" id="Shape"></path>
            <circle id="Oval" cx="78" cy="119" r="54"></circle>
            <path d="M29,104 L129,104" id="Shape"></path>
            <path d="M29,137 L129,137" id="Shape"></path>
            <path d="M81,65 L81,173" id="Shape"></path>
            <ellipse id="Oval" cx="80.5" cy="119" rx="29.5" ry="54"></ellipse>
            <path d="M22,200 L139,200" id="Shape"></path>
            <path d="M22,217 L139,217" id="Shape"></path>
            <path d="M223,167 L214,167" id="Shape"></path>
            <path d="M239,167 L230,167" id="Shape"></path>
            <path d="M205,167 L196,167" id="Shape"></path>
            <path d="M187,167 L178,167" id="Shape"></path>
            <path d="M208,187 L208,238" id="Shape"></path>
            <path d="M194,187 L194,238" id="Shape"></path>
            <path d="M208,81 L208,146" id="Shape"></path>
            <path d="M194,81 L194,146" id="Shape"></path>
            <path d="M201,22 L201,64" id="Shape" stroke-linejoin="round"></path>
            <polyline id="Shape" stroke-linejoin="round" points="192 67 200 58 208 67"></polyline>
            <polyline id="Shape" stroke-linejoin="round" points="185 49 201.5 33 218 49"></polyline>
            <path d="M235,178 L235,259" id="Shape" stroke-linejoin="round"></path>
            <path d="M235,0 L235,155" id="Shape" stroke-linejoin="round"></path>
            <path d="M159,0 L159,22" id="Shape"></path>
            <path d="M117,20.8870968 L117,12.5322581 C117,5.61027419 122.609,0 129.529412,0 L246.470588,0 C253.391,0 259,5.61027419 259,12.5322581 L259,154.564516 C259,161.4865 253.391,167.096774 246.470588,167.096774 C253.391,167.096774 259,172.707048 259,179.629032 L259,246.467742 C259,253.389726 253.391,259 246.470588,259 L171.294118,259" id="Shape"></path>
        </g>
        <g id="Group-6-Copy" transform="translate(579.000000, 3.000000)" stroke="#B8E986" stroke-width="4">
            <polygon id="Stroke-3" points="41 48 44 48 44 0 41 0"></polygon>
            <polyline id="Stroke-5" points="273 253 273 225 238 225 238 253"></polyline>
            <polygon id="Stroke-6" points="48.8572915 48 51 74 35 74 37.135307 48"></polygon>
            <path d="M46.3448091,229.366002 L46.3448091,253 L33,253 L37.2231461,100 L48.5751033,100 L52,224.189577 C50.0893752,225.779381 48.2480428,227.455687 46.4981765,229.208478 C46.4418186,229.264021 46.3863846,229.311369 46.3448091,229.366002 Z" id="Stroke-7"></path>
            <path d="M60.2353793,77.806447 C57.9063488,75.45154 54.6958641,74 51.1396207,74 L50.9727345,74 L35.0272655,74 L34.8539252,74 C27.7543467,74 22,79.8182796 22,86.9967371 C22,90.5924917 23.4420443,93.8386461 25.7646207,96.193553 C26.3454953,96.7808814 26.9826133,97.3122737 27.6658325,97.7793395 C29.716412,99.1796049 32.1920443,100 34.8539252,100 L37.3360116,100 L48.6639884,100 L51.1396207,100 C58.2456533,100 64,94.1817204 64,86.9967371 C64,83.4075083 62.5579557,80.1613539 60.2353793,77.806447 Z" id="Stroke-8"></path>
            <path d="M146.526953,216.330647 C138.691638,211.744153 130.009685,208.407781 120.769449,206.587285 C120.774976,206.586381 120.779583,206.585477 120.78511,206.583669 C120.085874,206.445369 119.38111,206.317916 118.675425,206.196791 C118.528024,206.171481 118.37878,206.149787 118.230457,206.125381 C117.545961,206.012391 116.85778,205.90844 116.166835,205.811721 C115.930992,205.77918 115.69515,205.746639 115.458386,205.715905 C114.760071,205.624609 114.058071,205.541449 113.354228,205.467327 C113.212354,205.452864 113.071402,205.434786 112.928606,205.421227 C112.09026,205.337162 111.248228,205.266657 110.402512,205.207902 C110.198913,205.194343 109.995315,205.183496 109.791717,205.170841 C109.126567,205.129261 108.459575,205.094912 107.79074,205.069602 C107.551213,205.060563 107.310764,205.05062 107.070315,205.043388 C106.216307,205.017174 105.360457,205 104.5,205 C103.868937,205 103.238795,205.007231 102.610496,205.02079 C95.7019685,205.173553 89.0044094,206.162442 82.6182362,207.888027 C79.7153465,208.67263 76.8769449,209.609092 74.1122441,210.689277 C73.0067323,211.121351 71.9122756,211.576024 70.8307165,212.053294 C63.8015039,215.153742 57.2974094,219.196979 51.4861024,224.017589 C49.580937,225.594027 47.7457874,227.259953 46,229 L78.5573228,229 L163,229 C158.095213,224.119732 152.560283,219.857745 146.526953,216.330647 Z" id="Stroke-9" stroke-linecap="round" stroke-linejoin="round"></path>
            <path d="M162.85481,229 L78.6272708,229 L46.1516223,229 C46.0964869,229.05603 46.0413515,229.103793 46,229.158904 L46,253 L78.4747296,253 L146.423553,253 L163,253 L163,229.151556 C162.958648,229.096445 162.909946,229.05603 162.85481,229 Z" id="Stroke-10"></path>
            <path d="M210,195.745622 L210,211.22765 L210,227.048848 L210,253.041172 L173.628034,253.041172 L162.569288,253.041172 L162.569288,230.070046 C157.534569,224.942857 152.015759,219.597235 146,216.000922 L146,211.22765 L146,195.745622 L146,180.270046 L146,163 L173.628034,163 L210,163 L210,180.270046 L210,195.745622 Z" id="Stroke-11"></path>
            <polygon id="Stroke-12" points="238 163.078742 238 180.042852 238 197.006962 238 213.971993 238 225.493812 238 230.936103 238 252.924724 210.371966 252.924724 210.371966 227.072169 210.371966 211.26466 210.371966 195.796029 210.371966 180.333844 210.371966 163.078742 174 163.078742 174 138 205.999541 138 238 138"></polygon>
            <path d="M220.496804,13 C239.550999,13 255,28.4475704 255,47.5 C255,66.5524296 239.550999,82 220.496804,82 C201.442609,82 186,66.5524296 186,47.5 C186,28.4475704 201.442609,13 220.496804,13 Z" id="Stroke-13"></path>
            <polygon id="Stroke-14" points="0 264 304 264 304 253 0 253"></polygon>
            <path d="M161.085398,132.52405 L191,115.401419 L184.135462,111.963694 C182.210345,110.998629 181.108323,108.916795 181.39324,106.778395 L183.626375,90.005451 L170.961674,93.6960129 C168.164694,94.5119476 165.260762,92.7875141 164.631891,89.9377421 L163.41864,84.4464671 L151.527408,98.3876376 C149.878652,100.319483 146.738573,98.8436011 147.168088,96.3383729 L152.246974,66.759025 L144.472069,68.8888546 C142.200431,69.5110905 139.802164,68.4757448 138.695008,66.3947684 L130.506845,51.023141 L130.506845,51 L130.501711,51.011999 L130.494866,51 L130.494866,51.023141 L122.307559,66.3947684 C121.199547,68.4757448 118.800424,69.5110905 116.529642,68.8888546 L108.753882,66.759025 L113.832768,96.3383729 C114.262283,98.842744 111.121348,100.319483 109.472592,98.3876376 L97.5813605,84.4464671 L96.3681092,89.9377421 C95.7392377,92.7883712 92.8361618,94.5110905 90.0383256,93.6960129 L77.3736247,90.005451 L79.60676,106.778395 C79.8916773,108.915938 78.7896549,110.998629 76.8645383,111.963694 L70,115.401419 L99.9146019,132.52405 C103.013612,134.298193 104.371461,138.059892 103.121418,141.408482 L100.564008,148.259933 L126.19715,146.068395 C127.615747,145.94669 128.822154,147.090884 128.781085,148.516199 L127.973391,176 L133.01463,176 L132.206937,148.514485 C132.165012,147.08917 133.372274,145.945833 134.790871,146.06668 L160.435136,148.259933 L157.877726,141.408482 C156.629395,138.059892 157.986388,134.297336 161.085398,132.52405 Z" id="Stroke-1" stroke-linecap="round" stroke-linejoin="round"></path>
        </g>
    </g>
</svg>